{
  "project_info": {
    "project_number": "568497684093",
    "project_id": "petco-inventory",
    "storage_bucket": "petco-inventory.appspot.com"
  },
  "client": [
    {
      "client_info": {
        "mobilesdk_app_id": "1:568497684093:android:d772365ad1dc0c79177b14",
        "android_client_info": {
          "package_name": "com.example.myinventory"
        }
      },
      "oauth_client": [
        {
          "client_id": "568497684093-2a4bikf86osin4pp5cja55enm5g73elr.apps.googleusercontent.com",
          "client_type": 3
        }
      ],
      "api_key": [
        {
          "current_key": "AIzaSyCINTnKv4e5rkI__XbdU8sPWYW5DrRiwN8"
        }
      ],
      "services": {
        "appinvite_service": {
          "other_platform_oauth_client": [
            {
              "client_id": "568497684093-2a4bikf86osin4pp5cja55enm5g73elr.apps.googleusercontent.com",
              "client_type": 3
            }
          ]
        }
      }
    }
  ],
  "configuration_version": "1"
}